sdio_waves.vcd
$date
	Tue Jun  2 17:45:09 2026
$end

$version
	Synopsys VCS version X-2025.06-1_Full64
$end

$timescale
	1s
$end

$comment Csum: 1 78ffd2991e352cfb $end


$scope module tb_top $end
$var reg 1 ! clk $end
$var reg 1 " rst_n $end
$var reg 32 # commands_sent [31:0] $end
$var reg 32 $ responses_received [31:0] $end
$var reg 32 % errors [31:0] $end

$scope task check_results_and_finish $end
$upscope $end


$scope module sd_bus $end
$var reg 1 & clk $end
$var reg 1 ' rst_n $end
$var wire 1 ( cmd $end
$var wire 4 ) dat [3:0] $end
$var reg 1 * host_cmd_out $end
$var reg 1 + host_cmd_oe $end
$var reg 4 , host_dat_out [3:0] $end
$var reg 1 - host_dat_oe $end
$var reg 1 . card_cmd_out $end
$var reg 1 / card_cmd_oe $end
$var reg 4 0 card_dat_out [3:0] $end
$var reg 1 1 card_dat_oe $end
$upscope $end


$scope module host_model $end

$scope task send_cmd $end
$var reg 6 2 cmd_idx [5:0] $end
$var reg 32 3 arg [31:0] $end
$var reg 48 4 cmd_packet [47:0] $end
$var reg 32 5 i [31:0] $end
$upscope $end

$upscope $end


$scope module card_model $end
$var reg 48 6 received_cmd [47:0] $end
$var reg 6 7 cmd_index [5:0] $end
$var reg 32 8 i [31:0] $end

$scope task send_response $end
$var reg 6 9 resp_idx [5:0] $end
$var reg 48 : resp_packet [47:0] $end
$var reg 32 ; j [31:0] $end
$upscope $end

$upscope $end

$upscope $end

$enddefinitions $end

#0
$dumpvars
0!
0"
b00000000000000000000000000000000 #
b00000000000000000000000000000000 %
b00000000000000000000000000000000 $
b1111 0
b1111 ,
bxxxxxxxxxxxxxxxxxxxxxxxxxxxxxxxx 3
bxxxxxx 2
bxxxxxxxxxxxxxxxxxxxxxxxxxxxxxxxxxxxxxxxxxxxxxxxx 4
b00000000000000000000000000000000 5
bxxxxxx 7
bxxxxxxxxxxxxxxxxxxxxxxxxxxxxxxxxxxxxxxxxxxxxxxxx 6
bxxxxxx 9
bxxxxxxxxxxxxxxxxxxxxxxxxxxxxxxxxxxxxxxxxxxxxxxxx :
b00000000000000000000000000000000 8
b00000000000000000000000000000000 ;
b1111 )
0&
0'
0/
1.
01
0+
1*
0-
1(
$end
#10
1!
1&
#20
0!
0&
#30
1!
1&
#40
0!
0&
#50
1"
1'
1!
1&
#60
0!
0&
#70
1!
1&
#80
0!
0&
#90
1!
1&
#100
0!
0&
#110
1!
1&
#120
0!
0&
#130
1!
1&
#140
0!
0&
#150
1!
1&
#160
0!
0&
#170
1!
1&
#180
0!
0&
#190
1!
1&
#200
0!
0&
#210
1!
1&
#220
0!
0&
#230
1!
1&
#240
0!
0&
#250
1!
1&
b000000 2
b00000000000000000000000000000000 3
b010000000000000000000000000000000000000000000001 4
#260
0!
0&
1+
b00000000000000000000000000101111 5
0*
b00000000000000000000000000000001 #
0(
b00000000000000000000000000101111 8
#270
1!
1&
b0xxxxxxxxxxxxxxxxxxxxxxxxxxxxxxxxxxxxxxxxxxxxxxx 6
b00000000000000000000000000101110 8
#280
0!
0&
b00000000000000000000000000101110 5
1*
1(
#290
1!
1&
b01xxxxxxxxxxxxxxxxxxxxxxxxxxxxxxxxxxxxxxxxxxxxxx 6
b00000000000000000000000000101101 8
#300
0!
0&
b00000000000000000000000000101101 5
0*
0(
#310
1!
1&
b010xxxxxxxxxxxxxxxxxxxxxxxxxxxxxxxxxxxxxxxxxxxxx 6
b00000000000000000000000000101100 8
#320
0!
0&
b00000000000000000000000000101100 5
#330
1!
1&
b0100xxxxxxxxxxxxxxxxxxxxxxxxxxxxxxxxxxxxxxxxxxxx 6
b00000000000000000000000000101011 8
#340
0!
0&
b00000000000000000000000000101011 5
#350
1!
1&
b01000xxxxxxxxxxxxxxxxxxxxxxxxxxxxxxxxxxxxxxxxxxx 6
b00000000000000000000000000101010 8
#360
0!
0&
b00000000000000000000000000101010 5
#370
1!
1&
b010000xxxxxxxxxxxxxxxxxxxxxxxxxxxxxxxxxxxxxxxxxx 6
b00000000000000000000000000101001 8
#380
0!
0&
b00000000000000000000000000101001 5
#390
1!
1&
b0100000xxxxxxxxxxxxxxxxxxxxxxxxxxxxxxxxxxxxxxxxx 6
b00000000000000000000000000101000 8
#400
0!
0&
b00000000000000000000000000101000 5
#410
1!
1&
b01000000xxxxxxxxxxxxxxxxxxxxxxxxxxxxxxxxxxxxxxxx 6
b00000000000000000000000000100111 8
#420
0!
0&
b00000000000000000000000000100111 5
#430
1!
1&
b010000000xxxxxxxxxxxxxxxxxxxxxxxxxxxxxxxxxxxxxxx 6
b00000000000000000000000000100110 8
#440
0!
0&
b00000000000000000000000000100110 5
#450
1!
1&
b0100000000xxxxxxxxxxxxxxxxxxxxxxxxxxxxxxxxxxxxxx 6
b00000000000000000000000000100101 8
#460
0!
0&
b00000000000000000000000000100101 5
#470
1!
1&
b01000000000xxxxxxxxxxxxxxxxxxxxxxxxxxxxxxxxxxxxx 6
b00000000000000000000000000100100 8
#480
0!
0&
b00000000000000000000000000100100 5
#490
1!
1&
b010000000000xxxxxxxxxxxxxxxxxxxxxxxxxxxxxxxxxxxx 6
b00000000000000000000000000100011 8
#500
0!
0&
b00000000000000000000000000100011 5
#510
1!
1&
b0100000000000xxxxxxxxxxxxxxxxxxxxxxxxxxxxxxxxxxx 6
b00000000000000000000000000100010 8
#520
0!
0&
b00000000000000000000000000100010 5
#530
1!
1&
b01000000000000xxxxxxxxxxxxxxxxxxxxxxxxxxxxxxxxxx 6
b00000000000000000000000000100001 8
#540
0!
0&
b00000000000000000000000000100001 5
#550
1!
1&
b010000000000000xxxxxxxxxxxxxxxxxxxxxxxxxxxxxxxxx 6
b00000000000000000000000000100000 8
#560
0!
0&
b00000000000000000000000000100000 5
#570
1!
1&
b0100000000000000xxxxxxxxxxxxxxxxxxxxxxxxxxxxxxxx 6
b00000000000000000000000000011111 8
#580
0!
0&
b00000000000000000000000000011111 5
#590
1!
1&
b01000000000000000xxxxxxxxxxxxxxxxxxxxxxxxxxxxxxx 6
b00000000000000000000000000011110 8
#600
0!
0&
b00000000000000000000000000011110 5
#610
1!
1&
b010000000000000000xxxxxxxxxxxxxxxxxxxxxxxxxxxxxx 6
b00000000000000000000000000011101 8
#620
0!
0&
b00000000000000000000000000011101 5
#630
1!
1&
b0100000000000000000xxxxxxxxxxxxxxxxxxxxxxxxxxxxx 6
b00000000000000000000000000011100 8
#640
0!
0&
b00000000000000000000000000011100 5
#650
1!
1&
b01000000000000000000xxxxxxxxxxxxxxxxxxxxxxxxxxxx 6
b00000000000000000000000000011011 8
#660
0!
0&
b00000000000000000000000000011011 5
#670
1!
1&
b010000000000000000000xxxxxxxxxxxxxxxxxxxxxxxxxxx 6
b00000000000000000000000000011010 8
#680
0!
0&
b00000000000000000000000000011010 5
#690
1!
1&
b0100000000000000000000xxxxxxxxxxxxxxxxxxxxxxxxxx 6
b00000000000000000000000000011001 8
#700
0!
0&
b00000000000000000000000000011001 5
#710
1!
1&
b01000000000000000000000xxxxxxxxxxxxxxxxxxxxxxxxx 6
b00000000000000000000000000011000 8
#720
0!
0&
b00000000000000000000000000011000 5
#730
1!
1&
b010000000000000000000000xxxxxxxxxxxxxxxxxxxxxxxx 6
b00000000000000000000000000010111 8
#740
0!
0&
b00000000000000000000000000010111 5
#750
1!
1&
b0100000000000000000000000xxxxxxxxxxxxxxxxxxxxxxx 6
b00000000000000000000000000010110 8
#760
0!
0&
b00000000000000000000000000010110 5
#770
1!
1&
b01000000000000000000000000xxxxxxxxxxxxxxxxxxxxxx 6
b00000000000000000000000000010101 8
#780
0!
0&
b00000000000000000000000000010101 5
#790
1!
1&
b010000000000000000000000000xxxxxxxxxxxxxxxxxxxxx 6
b00000000000000000000000000010100 8
#800
0!
0&
b00000000000000000000000000010100 5
#810
1!
1&
b0100000000000000000000000000xxxxxxxxxxxxxxxxxxxx 6
b00000000000000000000000000010011 8
#820
0!
0&
b00000000000000000000000000010011 5
#830
1!
1&
b01000000000000000000000000000xxxxxxxxxxxxxxxxxxx 6
b00000000000000000000000000010010 8
#840
0!
0&
b00000000000000000000000000010010 5
#850
1!
1&
b010000000000000000000000000000xxxxxxxxxxxxxxxxxx 6
b00000000000000000000000000010001 8
#860
0!
0&
b00000000000000000000000000010001 5
#870
1!
1&
b0100000000000000000000000000000xxxxxxxxxxxxxxxxx 6
b00000000000000000000000000010000 8
#880
0!
0&
b00000000000000000000000000010000 5
#890
1!
1&
b01000000000000000000000000000000xxxxxxxxxxxxxxxx 6
b00000000000000000000000000001111 8
#900
0!
0&
b00000000000000000000000000001111 5
#910
1!
1&
b010000000000000000000000000000000xxxxxxxxxxxxxxx 6
b00000000000000000000000000001110 8
#920
0!
0&
b00000000000000000000000000001110 5
#930
1!
1&
b0100000000000000000000000000000000xxxxxxxxxxxxxx 6
b00000000000000000000000000001101 8
#940
0!
0&
b00000000000000000000000000001101 5
#950
1!
1&
b01000000000000000000000000000000000xxxxxxxxxxxxx 6
b00000000000000000000000000001100 8
#960
0!
0&
b00000000000000000000000000001100 5
#970
1!
1&
b010000000000000000000000000000000000xxxxxxxxxxxx 6
b00000000000000000000000000001011 8
#980
0!
0&
b00000000000000000000000000001011 5
#990
1!
1&
b0100000000000000000000000000000000000xxxxxxxxxxx 6
b00000000000000000000000000001010 8
#1000
0!
0&
b00000000000000000000000000001010 5
#1010
1!
1&
b01000000000000000000000000000000000000xxxxxxxxxx 6
b00000000000000000000000000001001 8
#1020
0!
0&
b00000000000000000000000000001001 5
#1030
1!
1&
b010000000000000000000000000000000000000xxxxxxxxx 6
b00000000000000000000000000001000 8
#1040
0!
0&
b00000000000000000000000000001000 5
#1050
1!
1&
b0100000000000000000000000000000000000000xxxxxxxx 6
b00000000000000000000000000000111 8
#1060
0!
0&
b00000000000000000000000000000111 5
#1070
1!
1&
b01000000000000000000000000000000000000000xxxxxxx 6
b00000000000000000000000000000110 8
#1080
0!
0&
b00000000000000000000000000000110 5
#1090
1!
1&
b010000000000000000000000000000000000000000xxxxxx 6
b00000000000000000000000000000101 8
#1100
0!
0&
b00000000000000000000000000000101 5
#1110
1!
1&
b0100000000000000000000000000000000000000000xxxxx 6
b00000000000000000000000000000100 8
#1120
0!
0&
b00000000000000000000000000000100 5
#1130
1!
1&
b01000000000000000000000000000000000000000000xxxx 6
b00000000000000000000000000000011 8
#1140
0!
0&
b00000000000000000000000000000011 5
#1150
1!
1&
b010000000000000000000000000000000000000000000xxx 6
b00000000000000000000000000000010 8
#1160
0!
0&
b00000000000000000000000000000010 5
#1170
1!
1&
b0100000000000000000000000000000000000000000000xx 6
b00000000000000000000000000000001 8
#1180
0!
0&
b00000000000000000000000000000001 5
#1190
1!
1&
b01000000000000000000000000000000000000000000000x 6
b00000000000000000000000000000000 8
#1200
0!
0&
b00000000000000000000000000000000 5
1*
1(
#1210
1!
1&
b010000000000000000000000000000000000000000000001 6
b11111111111111111111111111111111 8
b000000 7
#1220
0!
0&
b11111111111111111111111111111111 5
0+
1(
#1230
1!
1&
#1240
0!
0&
b000000 9
b000000001010010110100101101001011010010100000001 :
#1250
1!
1&
#1260
0!
0&
1/
b00000000000000000000000000101111 ;
0.
b00000000000000000000000000000001 $
0(
#1270
1!
1&
#1280
0!
0&
b00000000000000000000000000101110 ;
#1290
1!
1&
#1300
0!
0&
b00000000000000000000000000101101 ;
#1310
1!
1&
#1320
0!
0&
b00000000000000000000000000101100 ;
#1330
1!
1&
#1340
0!
0&
b00000000000000000000000000101011 ;
#1350
1!
1&
#1360
0!
0&
b00000000000000000000000000101010 ;
#1370
1!
1&
#1380
0!
0&
b00000000000000000000000000101001 ;
#1390
1!
1&
#1400
0!
0&
b00000000000000000000000000101000 ;
#1410
1!
1&
#1420
0!
0&
b00000000000000000000000000100111 ;
1.
1(
#1430
1!
1&
#1440
0!
0&
b00000000000000000000000000100110 ;
0.
0(
#1450
1!
1&
#1460
0!
0&
b00000000000000000000000000100101 ;
1.
1(
#1470
1!
1&
#1480
0!
0&
b00000000000000000000000000100100 ;
0.
0(
#1490
1!
1&
#1500
0!
0&
b00000000000000000000000000100011 ;
#1510
1!
1&
#1520
0!
0&
b00000000000000000000000000100010 ;
1.
1(
#1530
1!
1&
#1540
0!
0&
b00000000000000000000000000100001 ;
0.
0(
#1550
1!
1&
#1560
0!
0&
b00000000000000000000000000100000 ;
1.
1(
#1570
1!
1&
#1580
0!
0&
b00000000000000000000000000011111 ;
#1590
1!
1&
#1600
0!
0&
b00000000000000000000000000011110 ;
0.
0(
#1610
1!
1&
#1620
0!
0&
b00000000000000000000000000011101 ;
1.
1(
#1630
1!
1&
#1640
0!
0&
b00000000000000000000000000011100 ;
0.
0(
#1650
1!
1&
#1660
0!
0&
b00000000000000000000000000011011 ;
#1670
1!
1&
#1680
0!
0&
b00000000000000000000000000011010 ;
1.
1(
#1690
1!
1&
#1700
0!
0&
b00000000000000000000000000011001 ;
0.
0(
#1710
1!
1&
#1720
0!
0&
b00000000000000000000000000011000 ;
1.
1(
#1730
1!
1&
#1740
0!
0&
b00000000000000000000000000010111 ;
#1750
1!
1&
#1760
0!
0&
b00000000000000000000000000010110 ;
0.
0(
#1770
1!
1&
#1780
0!
0&
b00000000000000000000000000010101 ;
1.
1(
#1790
1!
1&
#1800
0!
0&
b00000000000000000000000000010100 ;
0.
0(
#1810
1!
1&
#1820
0!
0&
b00000000000000000000000000010011 ;
#1830
1!
1&
#1840
0!
0&
b00000000000000000000000000010010 ;
1.
1(
#1850
1!
1&
#1860
0!
0&
b00000000000000000000000000010001 ;
0.
0(
#1870
1!
1&
#1880
0!
0&
b00000000000000000000000000010000 ;
1.
1(
#1890
1!
1&
#1900
0!
0&
b00000000000000000000000000001111 ;
#1910
1!
1&
#1920
0!
0&
b00000000000000000000000000001110 ;
0.
0(
#1930
1!
1&
#1940
0!
0&
b00000000000000000000000000001101 ;
1.
1(
#1950
1!
1&
#1960
0!
0&
b00000000000000000000000000001100 ;
0.
0(
#1970
1!
1&
#1980
0!
0&
b00000000000000000000000000001011 ;
#1990
1!
1&
#2000
0!
0&
b00000000000000000000000000001010 ;
1.
1(
#2010
1!
1&
#2020
0!
0&
b00000000000000000000000000001001 ;
0.
0(
#2030
1!
1&
#2040
0!
0&
b00000000000000000000000000001000 ;
1.
1(
#2050
1!
1&
#2060
0!
0&
b00000000000000000000000000000111 ;
0.
0(
#2070
1!
1&
#2080
0!
0&
b00000000000000000000000000000110 ;
#2090
1!
1&
#2100
0!
0&
b00000000000000000000000000000101 ;
#2110
1!
1&
#2120
0!
0&
b00000000000000000000000000000100 ;
#2130
1!
1&
#2140
0!
0&
b00000000000000000000000000000011 ;
#2150
1!
1&
#2160
0!
0&
b00000000000000000000000000000010 ;
#2170
1!
1&
#2180
0!
0&
b00000000000000000000000000000001 ;
#2190
1!
1&
#2200
0!
0&
b00000000000000000000000000000000 ;
1.
1(
#2210
1!
1&
#2220
0!
0&
b11111111111111111111111111111111 ;
0/
1(
